Predicting the impact of components present in the blood on the occurance of Pedal edema
…
3.2 Tidying, Data Cleaning and Data Management

ckd1 <- ckd %>% select(pe, ane, bp, bgr, bu, sc, hemo, wbcc, rbcc) 

ckd2 <- ckd1
ckd2 <- ckd2 %>%  mutate(pe = ifelse(pe == "yes", 1, 0))
ckd2 <- ckd2 %>%  mutate(ane = ifelse(ane == "yes", 1, 0))

I have chosen all the blood associated factors from the original dataset, and have converted two Yes/No variables, namely, pe and ane into 1/0 variables.

3.3 Tidied Tibble

ckd2 %>% tbl_df()

# A tibble: 400 x 9
      pe   ane    bp   bgr    bu     sc  hemo  wbcc  rbcc
   <dbl> <dbl> <int> <int> <dbl>  <dbl> <dbl> <int> <dbl>
 1  0     0       80   121  36.0  1.20  15.4   7800  5.20
 2  0     0       50    NA  18.0  0.800 11.3   6000 NA   
 3  0     1.00    80   423  53.0  1.80   9.60  7500 NA   
 4  1.00  1.00    70   117  56.0  3.80  11.2   6700  3.90
 5  0     0       80   106  26.0  1.40  11.6   7300  4.60
 6  1.00  0       90    74  25.0  1.10  12.2   7800  4.40
 7  0     0       70   100  54.0 24.0   12.4     NA NA   
 8  1.00  0       NA   410  31.0  1.10  12.4   6900  5.00
 9  0     1.00   100   138  60.0  1.90  10.8   9600  4.00
10  0     1.00    90    70 107    7.20   9.50 12100  3.70
# ... with 390 more rows
…
