Bilirubin concentrations and Ascities levels in Primary Biliary Cirrhosis.
…
Step 1: Converted all the . to NA values in order for skim to work.

Step 2: Checked for the missing values, if any. Found that Cholesterol has 28 missing values, Copper has 2, platelets has 4, and triglycerides has 30.

Step 3: Performed simple imputation to add the missing values in the numeric variables. The reason I performed simple imputation was that the number of missing values isnt very large in the variables.

Step 4: Converted Status to a binary variable. Renamed Sex as Female Converted Drug into a character variable. Converted Stage into a factor variable with multiple levels. Converted edema into a factor variable with two levels.

3 Task 3: Listing of My Tibble

pbc2 %>% tbl_df()

# A tibble: 312 x 19
    chol copper drug      fu.days    ID  plat female stage  status triglyc
   <dbl>  <dbl> <chr>       <int> <int> <dbl>  <int> <fct>  <fct>    <dbl>
 1   261  156   D-penici~     400     1   190      1 Extre~ Death    172  
 2   302   54.0 D-penici~    4500     2   221      1 Advan~ Censo~    88.0
 3   176  210   D-penici~    1012     3   151      0 Extre~ Death     55.0
 4   244   64.0 D-penici~    1925     4   183      1 Extre~ Death     92.0
 5   279  143   Placebo      1504     5   136      1 Advan~ Censo~    72.0
 6   248   50.0 Placebo      2503     6   296      1 Advan~ Death     63.0
 7   322   52.0 Placebo      1832     7   204      1 Advan~ Censo~   213  
 8   280   52.0 Placebo      2466     8   373      1 Advan~ Death    189  
 9   562   79.0 D-penici~    2400     9   251      1 Mid    Death     88.0
10   200  140   Placebo        51    10   302      1 Extre~ Death    143  
# ... with 302 more rows, and 9 more variables: alb <dbl>, alk_phos <dbl>,
#   Bili <dbl>, protime <dbl>, sgot <dbl>, edema <fct>, spiders <int>,
#   hepatem <int>, ascities <int>
…
10.6 Predictions

p <- datadist(pbc4)
options(datadist = "p")
model_fw2del3ols <- ols(Bili~ sgot + copper + protime + triglyc + alb + hepatem + plat, data = pbc4[-c(144,67,18,16),], x = TRUE, y = TRUE)

predictions <- Predict(model_fw2del3ols, hepatem = c(0,1), sgot = seq(25, 100) )
tbl_df(predictions)

# A tibble: 152 x 10
    sgot copper protime triglyc   alb hepatem  plat   yhat  lower  upper
   <int>  <dbl>   <dbl>   <dbl> <dbl>   <dbl> <dbl>  <dbl>  <dbl>  <dbl>
 1    25   73.0    10.6     108  3.55       0   258 -0.350 -0.506 -0.193
 2    26   73.0    10.6     108  3.55       0   258 -0.342 -0.498 -0.187
 3    27   73.0    10.6     108  3.55       0   258 -0.335 -0.490 -0.181
 4    28   73.0    10.6     108  3.55       0   258 -0.328 -0.481 -0.175
 5    29   73.0    10.6     108  3.55       0   258 -0.321 -0.473 -0.169
 6    30   73.0    10.6     108  3.55       0   258 -0.313 -0.464 -0.163
 7    31   73.0    10.6     108  3.55       0   258 -0.306 -0.456 -0.157
 8    32   73.0    10.6     108  3.55       0   258 -0.299 -0.447 -0.150
 9    33   73.0    10.6     108  3.55       0   258 -0.292 -0.439 -0.144
10    34   73.0    10.6     108  3.55       0   258 -0.284 -0.431 -0.138
# ... with 142 more rows
…
